2° semestre/arquitetura01/Guia_09/gtkwave/Guia_0902.v.vcd
$date
	Sat Sep 28 10:34:14 2024
$end
$version
	GTKWave Analyzer v3.3.90 (w)1999-2018 BSI
$end
$timescale
	1 s
$end
$scope module Guia_0902 $end
$scope module pls2 $end
$var wire 1 $ signal $end
$upscope $end
$scope module pls4 $end
$var wire 1 & signal $end
$upscope $end
$scope module clk $end
$var wire 1 " clk $end
$upscope $end
$scope module pls1 $end
$var wire 1 # signal $end
$upscope $end
$scope module pls3 $end
$var wire 1 % signal $end
$upscope $end
$upscope $end
$enddefinitions $end
$dumpvars
#0
0"
x#
x$
x&
x%
#12
1$
1"
1#
#16
0#
#17
0$
#20
1#
#22
1$
#24
0#
1%
0"
1&
#27
0$
#28
1#
#32
0#
#36
1#
1"
#37
1$
#39
0%
#40
0#
#44
1#
0&
#48
0#
0"
#52
1#
#54
1%
#56
0#
#60
1#
1"
#64
0#
1&
#65
0$
#68
1#
#70
1$
#72
0#
0"
#75
0$
#76
1#
#80
0#
#84
1#
1"
0&
0%
#85
1$
#88
0#
#92
1#
#96
0#
0"
1%
#100
1#
#104
0#
1&
#108
1"
1#
#111
0%
#112
0#
#113
0$
#116
1#
#118
1$
#120
0#
0"
