2° semestre/arquitetura01/Guia_09/Guia_0906.vcd
$date
	Sat Sep 28 10:24:57 2024
$end
$version
	Icarus Verilog
$end
$timescale
	1s
$end
$scope module Guia_0906 $end
$var wire 1 ! clock $end
$upscope $end
$scope module Guia_0906 $end
$var wire 1 " p1 $end
$upscope $end
$scope module Guia_0906 $end
$var reg 1 # p $end
$upscope $end
$enddefinitions $end
$comment Show the parameter values. $end
$dumpall
$end
#0
$dumpvars
0#
x"
0!
$end
#12
1!
#24
1"
0!
#29
0"
#36
1!
#48
1"
0!
#53
0"
#60
1!
#72
1"
0!
#77
0"
#84
1!
#96
1"
0!
#101
0"
#108
1!
#120
1"
0!
#125
0"
#132
1!
#144
1"
0!
#149
0"
#156
1!
#168
1"
0!
#173
0"
#180
1!
#192
1"
0!
#197
0"
#204
1!
#216
1"
0!
#221
0"
#228
1!
#240
1"
0!
#245
0"
#252
1!
#264
1"
0!
#269
0"
#276
1!
#288
1"
0!
#293
0"
#300
1!
#312
1"
0!
#317
0"
#324
1!
#336
1"
0!
#341
0"
#348
1!
#360
1"
0!
#365
0"
